{
  "name": "payment_preferences",
  "base": "PersistedModel",
  "idInjection": true,
  "options": {
    "validateUpsert": true
  },
  "properties": {
    "platform": {
      "type": [
        "string"
      ]
    },
    "mobile_payments": {
      "type": [
        "object"
      ]
    },
    "card_payments": {
      "type": [
        "object"
      ]
    },
    "billing_cycle": {
      "type": "number"
    }
  },
  "validations": [],
  "relations": {},
  "acls": [
    {
      "accessType": "WRITE",
      "principalType": "ROLE",
      "principalId": "$owner",
      "permission": "ALLOW"
    }
  ],
  "methods": {}
}
