{
  "restApiRoot": "/api",
  "host": "0.0.0.0",
  "port": 8080,
  "prod_ip": "35.184.115.189",
  "dev_ip": "104.198.106.68",
  "local_ip": "0.0.0.0",
  "remoting": {
    "context": false,
    "rest": {
      "handleErrors": false,
      "normalizeHttpPath": false,
      "xml": false
    },
    "json": {
      "strict": false,
      "limit": "100kb"
    },
    "urlencoded": {
      "extended": true,
      "limit": "100kb"
    },
    "cors": false
  },
  "keyPublishable": "pk_test_nucxaHlNBFh2GDWoTvwNf38L",
  "keySecret": "sk_test_grMqtmwftFPRqysedjfBjyYg"
}
