{
  "db": {
    "name": "db",
    "connector": "memory"
  },
  "mongodbLocal": {
    "host": "localhost",
    "port": 27017,
    "url": "",
    "database": "my-lib-backend",
    "password": "",
    "name": "mongodbLocal",
    "user": "",
    "connector": "mongodb"
  },
  "emailDs": {
    "name": "emailDs",
    "connector": "mail",
    "transports": [
      {
        "type": "smtp",
        "defaultForType": "mail",
        "host": "smtp.gmail.com",
        "secure": true,
        "port": 465,
        "tls": {
          "rejectUnauthorized": false
        },
        "auth": {
          "user": "myliblive@gmail.com",
          "pass": "Upwork17mYlib"
        }
      }
    ]
  }
}
