{
  "_meta": {
    "sources": [
      "loopback/common/models",
      "loopback/server/models",
      "../common/models",
      "./models"
    ],
    "mixins": [
      "loopback/common/mixins",
      "loopback/server/mixins",
      "../common/mixins",
      "./mixins"
    ]
  },
  "User": {
    "dataSource": "db",
    "public": false,
    "options": {
      "emailVerificationRequired": false
    }
  },
  "AccessToken": {
    "dataSource": "db",
    "public": false
  },
  "ACL": {
    "dataSource": "db",
    "public": false
  },
  "RoleMapping": {
    "dataSource": "db",
    "public": false,
    "options": {
      "strictObjectIDCoercion": true
    }
  },
  "Role": {
    "dataSource": "db",
    "public": false
  },
  "Email": {
    "dataSource": "emailDs"
  },
  "home": {
    "dataSource": "mongodbLocal",
    "public": true
  },
  "subject": {
    "dataSource": "mongodbLocal",
    "public": true
  },
  "book": {
    "dataSource": "mongodbLocal",
    "public": true
  },
  "lesson": {
    "dataSource": "mongodbLocal",
    "public": true
  },
  "subscription": {
    "dataSource": "mongodbLocal",
    "public": true
  },
  "campaign": {
    "dataSource": "mongodbLocal",
    "public": true
  },
  "payment_preferences": {
    "dataSource": "mongodbLocal",
    "public": true
  },
  "app_preferences": {
    "dataSource": "mongodbLocal",
    "public": true
  },
  "user": {
    "dataSource": "mongodbLocal",
    "public": true,
    "options": {
      "emailVerificationRequired": false
    }
  },
  "topic": {
    "dataSource": "mongodbLocal",
    "public": true
  },
  "lsection": {
    "dataSource": "mongodbLocal",
    "public": true
  }
}
